…
### 5. Find the total sales of each city. How much  can you sell?
```
#5.Find the total sales of each city. How much  can you sell?
superstore %>% group_by(City) %>% summarise(sum(Sales)) %>% rename(Total_Amount = `sum(Sales)`)
```
### Result:
#### Some of the 519 rows
```
# A tibble: 529 x 2
   City        Total_Amount
   <chr>              <dbl>
 1 Aberdeen           25.5 
 2 Abilene             1.39
 3 Akron            2724.  
 4 Albuquerque      2220.  
 5 Alexandria       5520.  
 6 Allen             290.  
 7 Allentown         853.  
 8 Altoona            20.5 
 9 Amarillo         3773.  
10 Anaheim          5601.  
# ... with 519 more rows
```
…
